%YAML 1.1
%TAG !u! tag:unity3d.com,2011:
--- !u!1045 &1
EditorBuildSettings:
  m_ObjectHideFlags: 0
  serializedVersion: 2
  m_Scenes:
  - enabled: 1
    path: Assets/Scenes/StartUI.unity
    guid: e697bceecee9f9a44a0dd07a75efa4a9
  - enabled: 1
    path: Assets/Scenes/Main.unity
    guid: 2cda990e2423bbf4892e6590ba056729
  - enabled: 1
    path: Assets/Scenes/LossUI.unity
    guid: e921655367fd5bf4cb7ba8bf18586ec5
  m_configObjects: {}
